Ch2 Statistical Learning
…
elite <-
        college %>% 
                mutate(Elite = if_else(Top10perc > 50, "Yes", "No")) %>%
                mutate(Elite = as_factor(Elite)) %>%
                select(Elite) 

schools <-
        college %>%
                rownames() %>%
                as_tibble() %>%
                rename(School = value)

bind_cols(schools, elite)

## # A tibble: 777 x 2
##    School                       Elite
##    <chr>                        <fct>
##  1 Abilene Christian University No   
##  2 Adelphi University           No   
##  3 Adrian College               No   
##  4 Agnes Scott College          Yes  
##  5 Alaska Pacific University    No   
##  6 Albertson College            No   
##  7 Albertus Magnus College      No   
##  8 Albion College               No   
##  9 Albright College             No   
## 10 Alderson-Broaddus College    No   
## # ... with 767 more rows
…
