Ch5 Resampling Methods
…
(iii) Obtain a prediction of default status for each individual in the validation set by computing the posterior probability of default for that individual, and classifying the individual to the default category if the posterior probability is greater than 0.5.

Answer: Following is the prediction:

logreg_preds <- predict(logreg_fit_ii, type = "prob", testing(DefaultSplit)) %>%
  mutate(.pred_default = as_factor(ifelse(.pred_Yes > 0.5, "Yes", "No")))

logreg_preds

## # A tibble: 2,500 x 3
##    .pred_No .pred_Yes .pred_default
##       <dbl>     <dbl> <fct>        
##  1    0.998 0.00218   No           
##  2    0.998 0.00198   No           
##  3    1.000 0.0000202 No           
##  4    0.987 0.0130    No           
##  5    0.995 0.00475   No           
##  6    0.999 0.000878  No           
##  7    0.953 0.0473    No           
##  8    0.943 0.0570    No           
##  9    1.000 0.000187  No           
## 10    0.998 0.00170   No           
## # ... with 2,490 more rows
…
